^C:\USERS\HASON\SOURCE\REPOS\TICTACTOEOFFLINE\TICTACTOEOFFLINE\MAIN.CPP
/c /Zi /nologo /W3 /WX- /diagnostics:classic /sdl /O2 /Oi /Oy- /GL /D _MBCS /Gm- /EHsc /MD /GS /Gy /fp:precise /Zc:wchar_t /Zc:forScope /Zc:inline /Fo"RELEASE\\" /Fd"RELEASE\VC141.PDB" /Gd /TP /analyze- C:\USERS\HASON\SOURCE\REPOS\TICTACTOEOFFLINE\TICTACTOEOFFLINE\MAIN.CPP
^C:\USERS\HASON\SOURCE\REPOS\TICTACTOEOFFLINE\TICTACTOEOFFLINE\TICTACTOE.CPP
/c /Zi /nologo /W3 /WX- /diagnostics:classic /sdl /O2 /Oi /Oy- /GL /D _MBCS /Gm- /EHsc /MD /GS /Gy /fp:precise /Zc:wchar_t /Zc:forScope /Zc:inline /Fo"RELEASE\\" /Fd"RELEASE\VC141.PDB" /Gd /TP /analyze- C:\USERS\HASON\SOURCE\REPOS\TICTACTOEOFFLINE\TICTACTOEOFFLINE\TICTACTOE.CPP
